%YAML 1.1
%TAG !u! tag:unity3d.com,2011:
--- !u!1 &6548881377131814864
GameObject:
  m_ObjectHideFlags: 0
  m_CorrespondingSourceObject: {fileID: 0}
  m_PrefabInstance: {fileID: 0}
  m_PrefabAsset: {fileID: 0}
  serializedVersion: 6
  m_Component:
  - component: {fileID: 6548881377131814865}
  - component: {fileID: 6548881377131814866}
  m_Layer: 0
  m_Name: FlyUnderrE
  m_TagString: Untagged
  m_Icon: {fileID: 0}
  m_NavMeshLayer: 0
  m_StaticEditorFlags: 0
  m_IsActive: 1
--- !u!4 &6548881377131814865
Transform:
  m_ObjectHideFlags: 0
  m_CorrespondingSourceObject: {fileID: 0}
  m_PrefabInstance: {fileID: 0}
  m_PrefabAsset: {fileID: 0}
  m_GameObject: {fileID: 6548881377131814864}
  m_LocalRotation: {x: 0, y: 0, z: 0, w: 1}
  m_LocalPosition: {x: 0, y: 0, z: 0}
  m_LocalScale: {x: 1, y: 1, z: 1}
  m_Children:
  - {fileID: 3739635705994958983}
  m_Father: {fileID: 0}
  m_RootOrder: 0
  m_LocalEulerAnglesHint: {x: 0, y: 0, z: 0}
--- !u!114 &6548881377131814866
MonoBehaviour:
  m_ObjectHideFlags: 0
  m_CorrespondingSourceObject: {fileID: 0}
  m_PrefabInstance: {fileID: 0}
  m_PrefabAsset: {fileID: 0}
  m_GameObject: {fileID: 6548881377131814864}
  m_Enabled: 1
  m_EditorHideFlags: 0
  m_Script: {fileID: 11500000, guid: 5eb95bfbe8a011b498c720c5a5381259, type: 3}
  m_Name: 
  m_EditorClassIdentifier: 
  obstacleLength: 0.7
--- !u!1001 &4407395002565807306
PrefabInstance:
  m_ObjectHideFlags: 0
  serializedVersion: 2
  m_Modification:
    m_TransformParent: {fileID: 6548881377131814865}
    m_Modifications:
    - target: {fileID: 1067331925652673612, guid: 7b88d417c20938c41845fb6cca7d3bf2,
        type: 3}
      propertyPath: m_Name
      value: Wall
      objectReference: {fileID: 0}
    - target: {fileID: 1067331925652673613, guid: 7b88d417c20938c41845fb6cca7d3bf2,
        type: 3}
      propertyPath: m_LocalPosition.x
      value: 0
      objectReference: {fileID: 0}
    - target: {fileID: 1067331925652673613, guid: 7b88d417c20938c41845fb6cca7d3bf2,
        type: 3}
      propertyPath: m_LocalPosition.y
      value: 2.5
      objectReference: {fileID: 0}
    - target: {fileID: 1067331925652673613, guid: 7b88d417c20938c41845fb6cca7d3bf2,
        type: 3}
      propertyPath: m_LocalPosition.z
      value: 0
      objectReference: {fileID: 0}
    - target: {fileID: 1067331925652673613, guid: 7b88d417c20938c41845fb6cca7d3bf2,
        type: 3}
      propertyPath: m_LocalRotation.x
      value: -0
      objectReference: {fileID: 0}
    - target: {fileID: 1067331925652673613, guid: 7b88d417c20938c41845fb6cca7d3bf2,
        type: 3}
      propertyPath: m_LocalRotation.y
      value: -0
      objectReference: {fileID: 0}
    - target: {fileID: 1067331925652673613, guid: 7b88d417c20938c41845fb6cca7d3bf2,
        type: 3}
      propertyPath: m_LocalRotation.z
      value: -0
      objectReference: {fileID: 0}
    - target: {fileID: 1067331925652673613, guid: 7b88d417c20938c41845fb6cca7d3bf2,
        type: 3}
      propertyPath: m_LocalRotation.w
      value: 1
      objectReference: {fileID: 0}
    - target: {fileID: 1067331925652673613, guid: 7b88d417c20938c41845fb6cca7d3bf2,
        type: 3}
      propertyPath: m_RootOrder
      value: 0
      objectReference: {fileID: 0}
    - target: {fileID: 1067331925652673613, guid: 7b88d417c20938c41845fb6cca7d3bf2,
        type: 3}
      propertyPath: m_LocalEulerAnglesHint.x
      value: 0
      objectReference: {fileID: 0}
    - target: {fileID: 1067331925652673613, guid: 7b88d417c20938c41845fb6cca7d3bf2,
        type: 3}
      propertyPath: m_LocalEulerAnglesHint.y
      value: 0
      objectReference: {fileID: 0}
    - target: {fileID: 1067331925652673613, guid: 7b88d417c20938c41845fb6cca7d3bf2,
        type: 3}
      propertyPath: m_LocalEulerAnglesHint.z
      value: 0
      objectReference: {fileID: 0}
    - target: {fileID: 1067331925652673613, guid: 7b88d417c20938c41845fb6cca7d3bf2,
        type: 3}
      propertyPath: m_LocalScale.y
      value: 5
      objectReference: {fileID: 0}
    m_RemovedComponents: []
  m_SourcePrefab: {fileID: 100100000, guid: 7b88d417c20938c41845fb6cca7d3bf2, type: 3}
--- !u!4 &3739635705994958983 stripped
Transform:
  m_CorrespondingSourceObject: {fileID: 1067331925652673613, guid: 7b88d417c20938c41845fb6cca7d3bf2,
    type: 3}
  m_PrefabInstance: {fileID: 4407395002565807306}
  m_PrefabAsset: {fileID: 0}
